[{
        "id" : 1,
        "name" : "Settings",
        "type" : "page_link",
        "link" : "#",
        "page_id" : null,
        "parent_id" : null,
        "lft" : 2,
        "rgt" : 59,
        "depth" : 1,
        "icon" : "fa-cogs",
        "admin_route" : 1,
        "created_at" : "2017-10-04 14:35:17",
        "updated_at" : "2017-10-05 10:19:56",
        "deleted_at" : null
    }, {
        "id" : 2,
        "name" : "Navigation",
        "type" : "internal_link",
        "link" : "menu-item",
        "page_id" : null,
        "parent_id" : 1,
        "lft" : 17,
        "rgt" : 18,
        "depth" : 2,
        "icon" : "fa-list",
        "admin_route" : 1,
        "created_at" : "2017-10-04 14:35:17",
        "updated_at" : "2017-10-04 14:35:17",
        "deleted_at" : null
    }, {
        "id" : 3,
        "name" : "File Manager",
        "type" : "internal_link",
        "link" : "elfinder",
        "page_id" : null,
        "parent_id" : 1,
        "lft" : 11,
        "rgt" : 12,
        "depth" : 2,
        "icon" : "far fa-file",
        "admin_route" : 1,
        "created_at" : "2017-10-04 14:35:17",
        "updated_at" : "2017-10-04 14:35:17",
        "deleted_at" : null
    }, {
        "id" : 4,
        "name" : "Backups",
        "type" : "internal_link",
        "link" : "backup",
        "page_id" : null,
        "parent_id" : 1,
        "lft" : 9,
        "rgt" : 10,
        "depth" : 2,
        "icon" : "fa-save",
        "admin_route" : 1,
        "created_at" : "2017-10-04 14:35:17",
        "updated_at" : "2017-10-04 14:35:17",
        "deleted_at" : null
    }, {
        "id" : 5,
        "name" : "Application Logs",
        "type" : "internal_link",
        "link" : "log",
        "page_id" : null,
        "parent_id" : 1,
        "lft" : 3,
        "rgt" : 8,
        "depth" : 2,
        "icon" : "fa-terminal",
        "admin_route" : 1,
        "created_at" : "2017-10-04 14:35:17",
        "updated_at" : "2017-10-04 14:35:17",
        "deleted_at" : null
    }, {
        "id" : 6,
        "name" : "Site Config",
        "type" : "internal_link",
        "link" : "setting",
        "page_id" : null,
        "parent_id" : 1,
        "lft" : 57,
        "rgt" : 58,
        "depth" : 2,
        "icon" : "fa-cog",
        "admin_route" : 1,
        "created_at" : "2017-10-04 14:35:17",
        "updated_at" : "2017-10-05 10:19:56",
        "deleted_at" : null
    }, {
        "id" : 7,
        "name" : "Roles & Permissions",
        "type" : "internal_link",
        "link" : "#",
        "page_id" : null,
        "parent_id" : 1,
        "lft" : 31,
        "rgt" : 38,
        "depth" : 2,
        "icon" : "fa-users-cog",
        "admin_route" : 1,
        "created_at" : "2017-10-04 14:35:17",
        "updated_at" : "2017-10-04 14:35:17",
        "deleted_at" : null
    }, {
        "id" : 8,
        "name" : "Permissions",
        "type" : "internal_link",
        "link" : "permission",
        "page_id" : null,
        "parent_id" : 7,
        "lft" : 32,
        "rgt" : 33,
        "depth" : 3,
        "icon" : "fa-key",
        "admin_route" : 1,
        "created_at" : "2017-10-04 14:35:17",
        "updated_at" : "2017-10-04 14:35:17",
        "deleted_at" : null
    }, {
        "id" : 9,
        "name" : "Roles",
        "type" : "internal_link",
        "link" : "role",
        "page_id" : null,
        "parent_id" : 7,
        "lft" : 34,
        "rgt" : 35,
        "depth" : 3,
        "icon" : "fa-user-lock",
        "admin_route" : 1,
        "created_at" : "2017-10-04 14:35:17",
        "updated_at" : "2017-10-04 14:35:17",
        "deleted_at" : null
    }, {
        "id" : 10,
        "name" : "Users",
        "type" : "internal_link",
        "link" : "user",
        "page_id" : null,
        "parent_id" : 7,
        "lft" : 36,
        "rgt" : 37,
        "depth" : 3,
        "icon" : "fa-users",
        "admin_route" : 1,
        "created_at" : "2017-10-04 14:35:17",
        "updated_at" : "2017-10-04 14:35:17",
        "deleted_at" : null
    }
]
